   0  $accept : %entry% $end

   1  start : options statement_list EOF
   2        | statement_list EOF
   3        | EOF

   4  options : option options
   5          | option

   6  option : SET IDENT NUMF
   7         | SET IDENT NUMI
   8         | SET IDENT IDENT

   9  statement_list : statement COMMA statement_list
  10                 | statement

  11  statement : IDENT EQ expression

  12  simple_expression : EPSILON
  13                    | Z
  14                    | IDENT
  15                    | SEQ LPAR IDENT RPAR

  16  prod : PROD LPAR component RPAR

  17  component : simple_expression COMMA component
  18            | simple_expression

  19  simple_expression_list : simple_expression COMMA simple_expression_list
  20                         | prod COMMA simple_expression_list
  21                         | prod
  22                         | simple_expression

  23  expression : UNION LPAR simple_expression_list RPAR
  24             | simple_expression
  25             | prod

  26  %entry% : '\001' start

state 0
	$accept : . %entry% $end  (0)

	'\001'  shift 1
	.  error

	%entry%  goto 2


state 1
	%entry% : '\001' . start  (26)

	IDENT  shift 3
	SET  shift 4
	EOF  shift 5
	.  error

	start  goto 6
	options  goto 7
	statement_list  goto 8
	option  goto 9
	statement  goto 10


state 2
	$accept : %entry% . $end  (0)

	$end  accept


state 3
	statement : IDENT . EQ expression  (11)

	EQ  shift 11
	.  error


state 4
	option : SET . IDENT NUMF  (6)
	option : SET . IDENT NUMI  (7)
	option : SET . IDENT IDENT  (8)

	IDENT  shift 12
	.  error


state 5
	start : EOF .  (3)

	.  reduce 3


state 6
	%entry% : '\001' start .  (26)

	.  reduce 26


state 7
	start : options . statement_list EOF  (1)

	IDENT  shift 3
	.  error

	statement_list  goto 13
	statement  goto 10


state 8
	start : statement_list . EOF  (2)

	EOF  shift 14
	.  error


state 9
	options : option . options  (4)
	options : option .  (5)

	SET  shift 4
	IDENT  reduce 5

	options  goto 15
	option  goto 9


state 10
	statement_list : statement . COMMA statement_list  (9)
	statement_list : statement .  (10)

	COMMA  shift 16
	EOF  reduce 10


state 11
	statement : IDENT EQ . expression  (11)

	IDENT  shift 17
	SEQ  shift 18
	EPSILON  shift 19
	Z  shift 20
	UNION  shift 21
	PROD  shift 22
	.  error

	expression  goto 23
	simple_expression  goto 24
	prod  goto 25


state 12
	option : SET IDENT . NUMF  (6)
	option : SET IDENT . NUMI  (7)
	option : SET IDENT . IDENT  (8)

	NUMI  shift 26
	NUMF  shift 27
	IDENT  shift 28
	.  error


state 13
	start : options statement_list . EOF  (1)

	EOF  shift 29
	.  error


state 14
	start : statement_list EOF .  (2)

	.  reduce 2


state 15
	options : option options .  (4)

	.  reduce 4


state 16
	statement_list : statement COMMA . statement_list  (9)

	IDENT  shift 3
	.  error

	statement_list  goto 30
	statement  goto 10


state 17
	simple_expression : IDENT .  (14)

	.  reduce 14


state 18
	simple_expression : SEQ . LPAR IDENT RPAR  (15)

	LPAR  shift 31
	.  error


state 19
	simple_expression : EPSILON .  (12)

	.  reduce 12


state 20
	simple_expression : Z .  (13)

	.  reduce 13


state 21
	expression : UNION . LPAR simple_expression_list RPAR  (23)

	LPAR  shift 32
	.  error


state 22
	prod : PROD . LPAR component RPAR  (16)

	LPAR  shift 33
	.  error


state 23
	statement : IDENT EQ expression .  (11)

	.  reduce 11


state 24
	expression : simple_expression .  (24)

	.  reduce 24


state 25
	expression : prod .  (25)

	.  reduce 25


state 26
	option : SET IDENT NUMI .  (7)

	.  reduce 7


state 27
	option : SET IDENT NUMF .  (6)

	.  reduce 6


state 28
	option : SET IDENT IDENT .  (8)

	.  reduce 8


state 29
	start : options statement_list EOF .  (1)

	.  reduce 1


state 30
	statement_list : statement COMMA statement_list .  (9)

	.  reduce 9


state 31
	simple_expression : SEQ LPAR . IDENT RPAR  (15)

	IDENT  shift 34
	.  error


state 32
	expression : UNION LPAR . simple_expression_list RPAR  (23)

	IDENT  shift 17
	SEQ  shift 18
	EPSILON  shift 19
	Z  shift 20
	PROD  shift 22
	.  error

	simple_expression  goto 35
	prod  goto 36
	simple_expression_list  goto 37


state 33
	prod : PROD LPAR . component RPAR  (16)

	IDENT  shift 17
	SEQ  shift 18
	EPSILON  shift 19
	Z  shift 20
	.  error

	simple_expression  goto 38
	component  goto 39


state 34
	simple_expression : SEQ LPAR IDENT . RPAR  (15)

	RPAR  shift 40
	.  error


state 35
	simple_expression_list : simple_expression . COMMA simple_expression_list  (19)
	simple_expression_list : simple_expression .  (22)

	COMMA  shift 41
	RPAR  reduce 22


state 36
	simple_expression_list : prod . COMMA simple_expression_list  (20)
	simple_expression_list : prod .  (21)

	COMMA  shift 42
	RPAR  reduce 21


state 37
	expression : UNION LPAR simple_expression_list . RPAR  (23)

	RPAR  shift 43
	.  error


state 38
	component : simple_expression . COMMA component  (17)
	component : simple_expression .  (18)

	COMMA  shift 44
	RPAR  reduce 18


state 39
	prod : PROD LPAR component . RPAR  (16)

	RPAR  shift 45
	.  error


state 40
	simple_expression : SEQ LPAR IDENT RPAR .  (15)

	.  reduce 15


state 41
	simple_expression_list : simple_expression COMMA . simple_expression_list  (19)

	IDENT  shift 17
	SEQ  shift 18
	EPSILON  shift 19
	Z  shift 20
	PROD  shift 22
	.  error

	simple_expression  goto 35
	prod  goto 36
	simple_expression_list  goto 46


state 42
	simple_expression_list : prod COMMA . simple_expression_list  (20)

	IDENT  shift 17
	SEQ  shift 18
	EPSILON  shift 19
	Z  shift 20
	PROD  shift 22
	.  error

	simple_expression  goto 35
	prod  goto 36
	simple_expression_list  goto 47


state 43
	expression : UNION LPAR simple_expression_list RPAR .  (23)

	.  reduce 23


state 44
	component : simple_expression COMMA . component  (17)

	IDENT  shift 17
	SEQ  shift 18
	EPSILON  shift 19
	Z  shift 20
	.  error

	simple_expression  goto 38
	component  goto 48


state 45
	prod : PROD LPAR component RPAR .  (16)

	.  reduce 16


state 46
	simple_expression_list : simple_expression COMMA simple_expression_list .  (19)

	.  reduce 19


state 47
	simple_expression_list : prod COMMA simple_expression_list .  (20)

	.  reduce 20


state 48
	component : simple_expression COMMA component .  (17)

	.  reduce 17


20 terminals, 12 nonterminals
27 grammar rules, 49 states
